…
##### Sub task 2:

Compute 5-minute interval, on average across all the days in the dataset
that contains the maximum number of steps

    data_2%>%arrange(desc(total))

    ## # A tibble: 288 x 3
    ##    interval average total
    ##       <int>   <dbl> <int>
    ##  1      835    206. 10927
    ##  2      840    196. 10384
    ##  3      850    183.  9720
    ##  4      845    180.  9517
    ##  5      830    177.  9397
    ##  6      820    171.  9071
    ##  7      855    167.  8852
    ##  8      815    158.  8349
    ##  9      825    155.  8236
    ## 10      900    143.  7603
    ## # ... with 278 more rows
…
